{"meta": {"limit": 20, "next": "/api/v1/entries/?limit=20&offset=20", "offset": 0, "previous": null, "took": 834, "total_count": 177084483}, "objects": [{"code_cat": "3.1", "code_main": "4", "code_sub": "420", "direction": "out", "document_id": 5788, "gov_code": "0587", "gov_type": "06", "labels": [{"code": "4", "direction": "out", "label": "Onderwijs", "slug": "onderwijs", "type": "main"}, {"code": "420", "direction": "out", "label": "Openbaar basisonderwijs, exclusief onderwijshuisvesting", "slug": "openbaar-basisonderwijs-exclusief-onderwijshuisvesting", "type": "sub"}, {"code": "3.1", "direction": "out", "label": "Energie", "slug": "energie", "type": "cat"}], "period": 4, "period_str": "4", "plaatsing": [{"plaatsing": "1ste plaatsing", "value": 0.0}, {"plaatsing": "2de plaatsing", "value": 0.0}], "resource_uri": "/api/v1/entries/laSddxZ7Q2mZqYWeKNVgCQ/", "type": "spending", "value": 0.0, "year": 2012, "year_str": "2012"}, {"code_cat": "3.3.1", "code_main": "4", "code_sub": "420", "direction": "out", "document_id": 5788, "gov_code": "0587", "gov_type": "06", "labels": [{"code": "4", "direction": "out", "label": "Onderwijs", "slug": "onderwijs", "type": "main"}, {"code": "420", "direction": "out", "label": "Openbaar basisonderwijs, exclusief onderwijshuisvesting", "slug": "openbaar-basisonderwijs-exclusief-onderwijshuisvesting", "type": "sub"}, {"code": "3.3.1", "direction": "out", "label": "Kosten algemene plannen", "slug": "kosten-algemene-plannen", "type": "cat"}], "period": 4, "period_str": "4", "plaatsing": [{"plaatsing": "1ste plaatsing", "value": 0.0}, {"plaatsing": "2de plaatsing", "value": 0.0}], "resource_uri": "/api/v1/entries/qzr1Il4NQS6-4skWOB7Y8g/", "type": "spending", "value": 0.0, "year": 2012, "year_str": "2012"}, {"code_cat": "3.3.3", "code_main": "4", "code_sub": "420", "direction": "out", "document_id": 5788, "gov_code": "0587", "gov_type": "06", "labels": [{"code": "4", "direction": "out", "label": "Onderwijs", "slug": "onderwijs", "type": "main"}, {"code": "420", "direction": "out", "label": "Openbaar basisonderwijs, exclusief onderwijshuisvesting", "slug": "openbaar-basisonderwijs-exclusief-onderwijshuisvesting", "type": "sub"}, {"code": "3.3.3", "direction": "out", "label": "Overige aankopen en uitbestedingen duurzame goederen", "slug": "overige-aankopen-en-uitbestedingen-duurzame-goederen", "type": "cat"}], "period": 4, "period_str": "4", "plaatsing": [{"plaatsing": "1ste plaatsing", "value": 0.0}, {"plaatsing": "2de plaatsing", "value": 0.0}], "resource_uri": "/api/v1/entries/TvqeDlCDQ0K-hWGcVy2_qg/", "type": "spending", "value": 0.0, "year": 2012, "year_str": "2012"}, {"code_cat": "4.2.1", "code_main": "4", "code_sub": "420", "direction": "out", "document_id": 5788, "gov_code": "0587", "gov_type": "06", "labels": [{"code": "4", "direction": "out", "label": "Onderwijs", "slug": "onderwijs", "type": "main"}, {"code": "420", "direction": "out", "label": "Openbaar basisonderwijs, exclusief onderwijshuisvesting", "slug": "openbaar-basisonderwijs-exclusief-onderwijshuisvesting", "type": "sub"}, {"code": "4.2.1", "direction": "out", "label": "Subsidies aan marktproducenten", "slug": "subsidies-aan-marktproducenten", "type": "cat"}], "period": 4, "period_str": "4", "plaatsing": [{"plaatsing": "1ste plaatsing", "value": 0.0}, {"plaatsing": "2de plaatsing", "value": 0.0}], "resource_uri": "/api/v1/entries/DkZkpEU6Qo6u9FcUCt4bog/", "type": "spending", "value": 0.0, "year": 2012, "year_str": "2012"}, {"code_cat": "4.2.4", "code_main": "4", "code_sub": "420", "direction": "out", "document_id": 5788, "gov_code": "0587", "gov_type": "06", "labels": [{"code": "4", "direction": "out", "label": "Onderwijs", "slug": "onderwijs", "type": "main"}, {"code": "420", "direction": "out", "label": "Openbaar basisonderwijs, exclusief onderwijshuisvesting", "slug": "openbaar-basisonderwijs-exclusief-onderwijshuisvesting", "type": "sub"}, {"code": "4.2.4", "direction": "out", "label": "Inkomensoverdrachten aan overheid (niet-Rijk)", "slug": "inkomensoverdrachten-aan-overheid-niet-rijk", "type": "cat"}], "period": 4, "period_str": "4", "plaatsing": [{"plaatsing": "1ste plaatsing", "value": 0.0}, {"plaatsing": "2de plaatsing", "value": 0.0}], "resource_uri": "/api/v1/entries/1RbAI-z4SBCEoTV7dq4U6w/", "type": "spending", "value": 0.0, "year": 2012, "year_str": "2012"}, {"code_cat": "5.6", "code_main": "4", "code_sub": "420", "direction": "out", "document_id": 5788, "gov_code": "0587", "gov_type": "06", "labels": [{"code": "4", "direction": "out", "label": "Onderwijs", "slug": "onderwijs", "type": "main"}, {"code": "420", "direction": "out", "label": "Openbaar basisonderwijs, exclusief onderwijshuisvesting", "slug": "openbaar-basisonderwijs-exclusief-onderwijshuisvesting", "type": "sub"}, {"code": "5.6", "direction": "out", "label": "Langlopende leningen", "slug": "langlopende-leningen", "type": "cat"}], "period": 4, "period_str": "4", "plaatsing": [{"plaatsing": "1ste plaatsing", "value": 0.0}, {"plaatsing": "2de plaatsing", "value": 0.0}], "resource_uri": "/api/v1/entries/9Eycs_3IRCWIQxoNS9OE8g/", "type": "spending", "value": 0.0, "year": 2012, "year_str": "2012"}, {"code_cat": "6.3", "code_main": "4", "code_sub": "420", "direction": "out", "document_id": 5788, "gov_code": "0587", "gov_type": "06", "labels": [{"code": "4", "direction": "out", "label": "Onderwijs", "slug": "onderwijs", "type": "main"}, {"code": "420", "direction": "out", "label": "Openbaar basisonderwijs, exclusief onderwijshuisvesting", "slug": "openbaar-basisonderwijs-exclusief-onderwijshuisvesting", "type": "sub"}, {"code": "6.3", "direction": "out", "label": "Overige verrekeningen", "slug": "overige-verrekeningen", "type": "cat"}], "period": 4, "period_str": "4", "plaatsing": [{"plaatsing": "1ste plaatsing", "value": 0.0}, {"plaatsing": "2de plaatsing", "value": 0.0}], "resource_uri": "/api/v1/entries/iFMvo1DASKmEo42kga9UZw/", "type": "spending", "value": 0.0, "year": 2012, "year_str": "2012"}, {"code_cat": "2.3", "code_main": "4", "code_sub": "420", "direction": "in", "document_id": 5788, "gov_code": "0587", "gov_type": "06", "labels": [{"code": "4", "direction": "in", "label": "Onderwijs", "slug": "onderwijs", "type": "main"}, {"code": "420", "direction": "in", "label": "Openbaar basisonderwijs, exclusief onderwijshuisvesting", "slug": "openbaar-basisonderwijs-exclusief-onderwijshuisvesting", "type": "sub"}, {"code": "2.3", "direction": "in", "label": "Afschrijvingen", "slug": "afschrijvingen", "type": "cat"}], "period": 4, "period_str": "4", "plaatsing": [{"plaatsing": "1ste plaatsing", "value": 0.0}, {"plaatsing": "2de plaatsing", "value": 0.0}], "resource_uri": "/api/v1/entries/cwKcv2xgTM-fZQG4X46oNg/", "type": "spending", "value": 0.0, "year": 2012, "year_str": "2012"}, {"code_cat": "3.0", "code_main": "4", "code_sub": "420", "direction": "in", "document_id": 5788, "gov_code": "0587", "gov_type": "06", "labels": [{"code": "4", "direction": "in", "label": "Onderwijs", "slug": "onderwijs", "type": "main"}, {"code": "420", "direction": "in", "label": "Openbaar basisonderwijs, exclusief onderwijshuisvesting", "slug": "openbaar-basisonderwijs-exclusief-onderwijshuisvesting", "type": "sub"}, {"code": "3.0", "direction": "in", "label": "Vergoeding voor personeel", "slug": "vergoeding-voor-personeel", "type": "cat"}], "period": 4, "period_str": "4", "plaatsing": [{"plaatsing": "1ste plaatsing", "value": 0.0}, {"plaatsing": "2de plaatsing", "value": 0.0}], "resource_uri": "/api/v1/entries/WdKGcXFISH6BEGWjQqGPGA/", "type": "spending", "value": 0.0, "year": 2012, "year_str": "2012"}, {"code_cat": "3.4", "code_main": "4", "code_sub": "420", "direction": "in", "document_id": 5788, "gov_code": "0587", "gov_type": "06", "labels": [{"code": "4", "direction": "in", "label": "Onderwijs", "slug": "onderwijs", "type": "main"}, {"code": "420", "direction": "in", "label": "Openbaar basisonderwijs, exclusief onderwijshuisvesting", "slug": "openbaar-basisonderwijs-exclusief-onderwijshuisvesting", "type": "sub"}, {"code": "3.4", "direction": "in", "label": "Overige goederen en diensten", "slug": "overige-goederen-en-diensten", "type": "cat"}], "period": 4, "period_str": "4", "plaatsing": [{"plaatsing": "1ste plaatsing", "value": 0.0}, {"plaatsing": "2de plaatsing", "value": 0.0}], "resource_uri": "/api/v1/entries/WzI9cgCHT-2j_2r5fqSw7w/", "type": "spending", "value": 0.0, "year": 2012, "year_str": "2012"}, {"code_cat": "4.0.2", "code_main": "4", "code_sub": "420", "direction": "in", "document_id": 5788, "gov_code": "0587", "gov_type": "06", "labels": [{"code": "4", "direction": "in", "label": "Onderwijs", "slug": "onderwijs", "type": "main"}, {"code": "420", "direction": "in", "label": "Openbaar basisonderwijs, exclusief onderwijshuisvesting", "slug": "openbaar-basisonderwijs-exclusief-onderwijshuisvesting", "type": "sub"}, {"code": "4.0.2", "direction": "in", "label": "Belasting op inkomen van gezinnen", "slug": "belasting-op-inkomen-van-gezinnen", "type": "cat"}], "period": 4, "period_str": "4", "plaatsing": [{"plaatsing": "1ste plaatsing", "value": 0.0}, {"plaatsing": "2de plaatsing", "value": 0.0}], "resource_uri": "/api/v1/entries/lSs_jt8LScONAe90JqpObA/", "type": "spending", "value": 0.0, "year": 2012, "year_str": "2012"}, {"code_cat": "5.5", "code_main": "4", "code_sub": "420", "direction": "in", "document_id": 5788, "gov_code": "0587", "gov_type": "06", "labels": [{"code": "4", "direction": "in", "label": "Onderwijs", "slug": "onderwijs", "type": "main"}, {"code": "420", "direction": "in", "label": "Openbaar basisonderwijs, exclusief onderwijshuisvesting", "slug": "openbaar-basisonderwijs-exclusief-onderwijshuisvesting", "type": "sub"}, {"code": "5.5", "direction": "in", "label": "Kortlopende leningen", "slug": "kortlopende-leningen", "type": "cat"}], "period": 4, "period_str": "4", "plaatsing": [{"plaatsing": "1ste plaatsing", "value": 0.0}, {"plaatsing": "2de plaatsing", "value": 0.0}], "resource_uri": "/api/v1/entries/A9MjofARSOy8ZGUvDbvMwA/", "type": "spending", "value": 0.0, "year": 2012, "year_str": "2012"}, {"code_cat": "5.7", "code_main": "4", "code_sub": "420", "direction": "in", "document_id": 5788, "gov_code": "0587", "gov_type": "06", "labels": [{"code": "4", "direction": "in", "label": "Onderwijs", "slug": "onderwijs", "type": "main"}, {"code": "420", "direction": "in", "label": "Openbaar basisonderwijs, exclusief onderwijshuisvesting", "slug": "openbaar-basisonderwijs-exclusief-onderwijshuisvesting", "type": "sub"}, {"code": "5.7", "direction": "in", "label": "Aandelen en overige deelnemingen", "slug": "aandelen-en-overige-deelnemingen", "type": "cat"}], "period": 4, "period_str": "4", "plaatsing": [{"plaatsing": "1ste plaatsing", "value": 0.0}, {"plaatsing": "2de plaatsing", "value": 0.0}], "resource_uri": "/api/v1/entries/hgqYsUPTSaug55ShQ5tuvQ/", "type": "spending", "value": 0.0, "year": 2012, "year_str": "2012"}, {"code_cat": "1.2", "code_main": "4", "code_sub": "421", "direction": "out", "document_id": 5788, "gov_code": "0587", "gov_type": "06", "labels": [{"code": "4", "direction": "out", "label": "Onderwijs", "slug": "onderwijs", "type": "main"}, {"code": "421", "direction": "out", "label": "Openbaar basisonderwijs, onderwijshuisvesting", "slug": "openbaar-basisonderwijs-onderwijshuisvesting", "type": "sub"}, {"code": "1.2", "direction": "out", "label": "Sociale uitkeringen personeel", "slug": "sociale-uitkeringen-personeel", "type": "cat"}], "period": 4, "period_str": "4", "plaatsing": [{"plaatsing": "1ste plaatsing", "value": 0.0}, {"plaatsing": "2de plaatsing", "value": 0.0}], "resource_uri": "/api/v1/entries/Vs5XSWPyQNGXdf06_wQp1g/", "type": "spending", "value": 0.0, "year": 2012, "year_str": "2012"}, {"code_cat": "3.4.3", "code_main": "0", "code_sub": "004", "direction": "out", "document_id": 5788, "gov_code": "0587", "gov_type": "06", "labels": [{"code": "0", "direction": "out", "label": "Algemeen Bestuur", "slug": "algemeen-bestuur", "type": "main"}, {"code": "004", "direction": "out", "label": "Baten secretarieleges burgerzaken", "slug": "baten-secretarieleges-burgerzaken", "type": "sub"}, {"code": "3.4.3", "direction": "out", "label": "Aankopen niet duurzame goederen en diensten", "slug": "aankopen-niet-duurzame-goederen-en-diensten", "type": "cat"}], "period": 4, "period_str": "4", "plaatsing": [{"plaatsing": "1ste plaatsing", "value": 0.0}, {"plaatsing": "2de plaatsing", "value": 0.0}], "resource_uri": "/api/v1/entries/i60k4DI_Tym4ss3f0PBb0Q/", "type": "spending", "value": 0.0, "year": 2012, "year_str": "2012"}, {"code_cat": "5.3", "code_main": "4", "code_sub": "421", "direction": "out", "document_id": 5788, "gov_code": "0587", "gov_type": "06", "labels": [{"code": "4", "direction": "out", "label": "Onderwijs", "slug": "onderwijs", "type": "main"}, {"code": "421", "direction": "out", "label": "Openbaar basisonderwijs, onderwijshuisvesting", "slug": "openbaar-basisonderwijs-onderwijshuisvesting", "type": "sub"}, {"code": "5.3", "direction": "out", "label": "Langlopende effecten m.u.v.aandelen", "slug": "langlopende-effecten-muvaandelen", "type": "cat"}], "period": 4, "period_str": "4", "plaatsing": [{"plaatsing": "1ste plaatsing", "value": 0.0}, {"plaatsing": "2de plaatsing", "value": 0.0}], "resource_uri": "/api/v1/entries/DDnIjbY-Rc2PB-5V0KbAyA/", "type": "spending", "value": 0.0, "year": 2012, "year_str": "2012"}, {"code_cat": "5.4", "code_main": "4", "code_sub": "421", "direction": "out", "document_id": 5788, "gov_code": "0587", "gov_type": "06", "labels": [{"code": "4", "direction": "out", "label": "Onderwijs", "slug": "onderwijs", "type": "main"}, {"code": "421", "direction": "out", "label": "Openbaar basisonderwijs, onderwijshuisvesting", "slug": "openbaar-basisonderwijs-onderwijshuisvesting", "type": "sub"}, {"code": "5.4", "direction": "out", "label": "Financiële derivaten", "slug": "financiele-derivaten", "type": "cat"}], "period": 4, "period_str": "4", "plaatsing": [{"plaatsing": "1ste plaatsing", "value": 0.0}, {"plaatsing": "2de plaatsing", "value": 0.0}], "resource_uri": "/api/v1/entries/bU09AZPwThSyGdAXQHXxfA/", "type": "spending", "value": 0.0, "year": 2012, "year_str": "2012"}, {"code_cat": "6.3", "code_main": "4", "code_sub": "421", "direction": "out", "document_id": 5788, "gov_code": "0587", "gov_type": "06", "labels": [{"code": "4", "direction": "out", "label": "Onderwijs", "slug": "onderwijs", "type": "main"}, {"code": "421", "direction": "out", "label": "Openbaar basisonderwijs, onderwijshuisvesting", "slug": "openbaar-basisonderwijs-onderwijshuisvesting", "type": "sub"}, {"code": "6.3", "direction": "out", "label": "Overige verrekeningen", "slug": "overige-verrekeningen", "type": "cat"}], "period": 4, "period_str": "4", "plaatsing": [{"plaatsing": "1ste plaatsing", "value": 0.0}, {"plaatsing": "2de plaatsing", "value": 0.0}], "resource_uri": "/api/v1/entries/Luk6_BM0SFmC_PqFcSfr7g/", "type": "spending", "value": 0.0, "year": 2012, "year_str": "2012"}, {"code_cat": "3.0", "code_main": "4", "code_sub": "421", "direction": "in", "document_id": 5788, "gov_code": "0587", "gov_type": "06", "labels": [{"code": "4", "direction": "in", "label": "Onderwijs", "slug": "onderwijs", "type": "main"}, {"code": "421", "direction": "in", "label": "Openbaar basisonderwijs, onderwijshuisvesting", "slug": "openbaar-basisonderwijs-onderwijshuisvesting", "type": "sub"}, {"code": "3.0", "direction": "in", "label": "Vergoeding voor personeel", "slug": "vergoeding-voor-personeel", "type": "cat"}], "period": 4, "period_str": "4", "plaatsing": [{"plaatsing": "1ste plaatsing", "value": 0.0}, {"plaatsing": "2de plaatsing", "value": 0.0}], "resource_uri": "/api/v1/entries/Of46iyn_R_GIYSKmmnDYdQ/", "type": "spending", "value": 0.0, "year": 2012, "year_str": "2012"}, {"code_cat": "3.3.1", "code_main": "4", "code_sub": "421", "direction": "in", "document_id": 5788, "gov_code": "0587", "gov_type": "06", "labels": [{"code": "4", "direction": "in", "label": "Onderwijs", "slug": "onderwijs", "type": "main"}, {"code": "421", "direction": "in", "label": "Openbaar basisonderwijs, onderwijshuisvesting", "slug": "openbaar-basisonderwijs-onderwijshuisvesting", "type": "sub"}, {"code": "3.3.1", "direction": "in", "label": "Opbrengst van grondverkopen", "slug": "opbrengst-van-grondverkopen", "type": "cat"}], "period": 4, "period_str": "4", "plaatsing": [{"plaatsing": "1ste plaatsing", "value": 0.0}, {"plaatsing": "2de plaatsing", "value": 0.0}], "resource_uri": "/api/v1/entries/3_lTVPflTi6YyJcG39xtFQ/", "type": "spending", "value": 0.0, "year": 2012, "year_str": "2012"}]}